<?xml version="1.0" encoding="UTF-8" standalone="no"?>
<svg
   xmlns:dc="http://purl.org/dc/elements/1.1/"
   xmlns:cc="http://creativecommons.org/ns#"
   xmlns:rdf="http://www.w3.org/1999/02/22-rdf-syntax-ns#"
   xmlns:svg="http://www.w3.org/2000/svg"
   xmlns="http://www.w3.org/2000/svg"
   xmlns:sodipodi="http://sodipodi.sourceforge.net/DTD/sodipodi-0.dtd"
   xmlns:inkscape="http://www.inkscape.org/namespaces/inkscape"
   width="578.07898mm"
   height="488.17365mm"
   viewBox="0 0 578.07898 488.17365"
   version="1.1"
   id="svg8"
   inkscape:version="1.0.1 (3bc2e813f5, 2020-09-07)"
   sodipodi:docname="schematics.svg">
  <defs
     id="defs2">
    <marker
       style="overflow:visible"
       id="marker1585"
       refX="0"
       refY="0"
       orient="auto"
       inkscape:stockid="Arrow1Mend"
       inkscape:isstock="true">
      <path
         transform="matrix(-0.4,0,0,-0.4,-4,0)"
         style="fill:#000000;fill-opacity:1;fill-rule:evenodd;stroke:#000000;stroke-width:1pt;stroke-opacity:1"
         d="M 0,0 5,-5 -12.5,0 5,5 Z"
         id="path1583" />
    </marker>
    <marker
       style="overflow:visible"
       id="marker1515"
       refX="0"
       refY="0"
       orient="auto"
       inkscape:stockid="Arrow1Mstart"
       inkscape:isstock="true">
      <path
         transform="matrix(0.4,0,0,0.4,4,0)"
         style="fill:#000000;fill-opacity:1;fill-rule:evenodd;stroke:#000000;stroke-width:1pt;stroke-opacity:1"
         d="M 0,0 5,-5 -12.5,0 5,5 Z"
         id="path1513" />
    </marker>
    <marker
       style="overflow:visible"
       id="marker1447"
       refX="0"
       refY="0"
       orient="auto"
       inkscape:stockid="Arrow1Mend"
       inkscape:isstock="true"
       inkscape:collect="always">
      <path
         transform="matrix(-0.4,0,0,-0.4,-4,0)"
         style="fill:#000000;fill-opacity:1;fill-rule:evenodd;stroke:#000000;stroke-width:1pt;stroke-opacity:1"
         d="M 0,0 5,-5 -12.5,0 5,5 Z"
         id="path1445" />
    </marker>
    <marker
       style="overflow:visible"
       id="marker1341"
       refX="0"
       refY="0"
       orient="auto"
       inkscape:stockid="Arrow1Mstart"
       inkscape:isstock="true"
       inkscape:collect="always">
      <path
         transform="matrix(0.4,0,0,0.4,4,0)"
         style="fill:#000000;fill-opacity:1;fill-rule:evenodd;stroke:#000000;stroke-width:1pt;stroke-opacity:1"
         d="M 0,0 5,-5 -12.5,0 5,5 Z"
         id="path1339" />
    </marker>
    <marker
       style="overflow:visible"
       id="Arrow1Mend"
       refX="0"
       refY="0"
       orient="auto"
       inkscape:stockid="Arrow1Mend"
       inkscape:isstock="true"
       inkscape:collect="always">
      <path
         transform="matrix(-0.4,0,0,-0.4,-4,0)"
         style="fill:#000000;fill-opacity:1;fill-rule:evenodd;stroke:#000000;stroke-width:1pt;stroke-opacity:1"
         d="M 0,0 5,-5 -12.5,0 5,5 Z"
         id="path924" />
    </marker>
    <marker
       style="overflow:visible"
       id="Arrow1Mstart"
       refX="0"
       refY="0"
       orient="auto"
       inkscape:stockid="Arrow1Mstart"
       inkscape:isstock="true"
       inkscape:collect="always">
      <path
         transform="matrix(0.4,0,0,0.4,4,0)"
         style="fill:#000000;fill-opacity:1;fill-rule:evenodd;stroke:#000000;stroke-width:1pt;stroke-opacity:1"
         d="M 0,0 5,-5 -12.5,0 5,5 Z"
         id="path921" />
    </marker>
    <marker
       style="overflow:visible"
       id="Arrow1Lstart"
       refX="0"
       refY="0"
       orient="auto"
       inkscape:stockid="Arrow1Lstart"
       inkscape:isstock="true">
      <path
         transform="matrix(0.8,0,0,0.8,10,0)"
         style="fill:#000000;fill-opacity:1;fill-rule:evenodd;stroke:#000000;stroke-width:1pt;stroke-opacity:1"
         d="M 0,0 5,-5 -12.5,0 5,5 Z"
         id="path915" />
    </marker>
    <marker
       style="overflow:visible"
       id="marker1195"
       refX="0"
       refY="0"
       orient="auto"
       inkscape:stockid="Arrow1Lend"
       inkscape:isstock="true">
      <path
         transform="matrix(-0.8,0,0,-0.8,-10,0)"
         style="fill:#000000;fill-opacity:1;fill-rule:evenodd;stroke:#000000;stroke-width:1pt;stroke-opacity:1"
         d="M 0,0 5,-5 -12.5,0 5,5 Z"
         id="path1193" />
    </marker>
    <marker
       style="overflow:visible"
       id="Arrow1Lend"
       refX="0"
       refY="0"
       orient="auto"
       inkscape:stockid="Arrow1Lend"
       inkscape:isstock="true"
       inkscape:collect="always">
      <path
         transform="matrix(-0.8,0,0,-0.8,-10,0)"
         style="fill:#000000;fill-opacity:1;fill-rule:evenodd;stroke:#000000;stroke-width:1pt;stroke-opacity:1"
         d="M 0,0 5,-5 -12.5,0 5,5 Z"
         id="path918" />
    </marker>
  </defs>
  <sodipodi:namedview
     id="base"
     pagecolor="#ffffff"
     bordercolor="#666666"
     borderopacity="1.0"
     inkscape:pageopacity="0.0"
     inkscape:pageshadow="2"
     inkscape:zoom="0.49497475"
     inkscape:cx="1081.0683"
     inkscape:cy="1331.4154"
     inkscape:document-units="mm"
     inkscape:current-layer="layer1"
     inkscape:document-rotation="0"
     showgrid="false"
     showguides="true"
     inkscape:guide-bbox="true"
     fit-margin-top="0"
     fit-margin-left="0"
     fit-margin-right="0"
     fit-margin-bottom="0"
     inkscape:window-width="1920"
     inkscape:window-height="1006"
     inkscape:window-x="0"
     inkscape:window-y="25"
     inkscape:window-maximized="1">
    <sodipodi:guide
       position="-76.078929,180.56263"
       orientation="0,-1"
       id="guide833" />
    <sodipodi:guide
       position="-75.322976,143.52096"
       orientation="0,-1"
       id="guide835" />
    <sodipodi:guide
       position="-194.0075,287.15191"
       orientation="1,0"
       id="guide837" />
    <sodipodi:guide
       position="-26.416704,233.01421"
       orientation="0.70710678,-0.70710678"
       id="guide1221" />
    <sodipodi:guide
       position="4.2736994,143.52097"
       orientation="1,0"
       id="guide1223" />
    <sodipodi:guide
       position="128.67864,342.21836"
       orientation="1,0"
       id="guide1225" />
    <sodipodi:guide
       position="200.98643,143.52097"
       orientation="1,0"
       id="guide1227" />
    <sodipodi:guide
       position="23.829965,204.1491"
       orientation="0,-1"
       id="guide1229" />
    <sodipodi:guide
       position="77.283868,250.11946"
       orientation="0,-1"
       id="guide1231" />
    <sodipodi:guide
       position="172.226,180.56264"
       orientation="1,0"
       id="guide1509" />
  </sodipodi:namedview>
  <metadata
     id="metadata5">
    <rdf:RDF>
      <cc:Work
         rdf:about="">
        <dc:format>image/svg+xml</dc:format>
        <dc:type
           rdf:resource="http://purl.org/dc/dcmitype/StillImage" />
        <dc:title></dc:title>
      </cc:Work>
    </rdf:RDF>
  </metadata>
  <g
     inkscape:label="Layer 1"
     inkscape:groupmode="layer"
     id="layer1"
     transform="translate(4.0520203,269.05745)">
    <rect
       style="fill:none;fill-rule:evenodd;stroke:#000000;stroke-width:1;paint-order:markers fill stroke"
       id="rect839"
       width="196.71274"
       height="37.041668"
       x="0.22167924"
       y="38.553562" />
    <rect
       style="fill:#666666;fill-rule:evenodd;stroke:none;stroke-width:1;paint-order:markers fill stroke"
       id="rect857"
       width="122.93081"
       height="37.041668"
       x="0.22167924"
       y="38.553562" />
    <rect
       style="fill:#b3b3b3;fill-rule:evenodd;stroke:none;stroke-width:1;paint-order:markers fill stroke"
       id="rect859"
       width="73.781929"
       height="37.041668"
       x="123.15249"
       y="38.553562" />
    <rect
       style="fill:#ff2a2a;fill-rule:evenodd;stroke:none;stroke-width:1;paint-order:markers fill stroke"
       id="rect861"
       width="167.9523"
       height="7.2980146"
       x="0.22167924"
       y="38.553562" />
    <rect
       style="fill:none;fill-rule:evenodd;stroke:#000000;stroke-width:1;paint-order:markers fill stroke"
       id="rect839-7"
       width="196.71274"
       height="37.041668"
       x="132.54405"
       y="109.50721" />
    <rect
       style="fill:#666666;fill-rule:evenodd;stroke:none;stroke-width:1;paint-order:markers fill stroke"
       id="rect857-0"
       width="122.93081"
       height="37.041668"
       x="132.54405"
       y="109.50721" />
    <rect
       style="fill:#b3b3b3;fill-rule:evenodd;stroke:none;stroke-width:1;paint-order:markers fill stroke"
       id="rect859-8"
       width="73.781929"
       height="37.041668"
       x="255.47488"
       y="109.50721" />
    <rect
       style="fill:#ff2a2a;fill-rule:evenodd;stroke:none;stroke-width:1;paint-order:markers fill stroke"
       id="rect861-1"
       width="167.9523"
       height="7.2980146"
       x="132.54405"
       y="109.50721" />
    <rect
       style="fill:none;fill-rule:evenodd;stroke:#000000;stroke-width:1;paint-order:markers fill stroke"
       id="rect839-9"
       width="196.71274"
       height="37.041668"
       x="376.81421"
       y="181.57452" />
    <rect
       style="fill:#666666;fill-rule:evenodd;stroke:none;stroke-width:1;paint-order:markers fill stroke"
       id="rect857-9"
       width="122.93081"
       height="37.041668"
       x="376.81421"
       y="181.57452" />
    <rect
       style="fill:#b3b3b3;fill-rule:evenodd;stroke:none;stroke-width:1;paint-order:markers fill stroke"
       id="rect859-7"
       width="73.781929"
       height="37.041668"
       x="499.74503"
       y="181.57452" />
    <rect
       style="fill:#ff2a2a;fill-rule:evenodd;stroke:none;stroke-width:1;paint-order:markers fill stroke"
       id="rect861-8"
       width="167.9523"
       height="7.2980146"
       x="376.81421"
       y="181.57452" />
    <path
       style="fill:none;fill-rule:evenodd;stroke:#000000;stroke-width:1;stroke-miterlimit:4;stroke-dasharray:none;marker-end:url(#Arrow1Lend);paint-order:markers fill stroke"
       d="m 196.8334,57.12793 h 20.76399 V 92.696 H 115.96235 v 36.03809 h 15.60251"
       id="path913" />
    <path
       style="fill:none;fill-rule:evenodd;stroke:#000000;stroke-width:1;stroke-miterlimit:4;stroke-dasharray:none;marker-end:url(#marker1195);paint-order:markers fill stroke"
       d="m 330.61748,129.23287 h 22.69525 v 72.09978 h 23.33939"
       id="path1191" />
    <path
       style="fill:none;fill-rule:evenodd;stroke:#000000;stroke-width:1;stroke-miterlimit:4;stroke-dasharray:none;marker-start:url(#Arrow1Mstart);marker-end:url(#Arrow1Mend);paint-order:markers fill stroke"
       d="M 0.22167924,14.967091 H 123.15249"
       id="path1233" />
    <path
       style="fill:none;fill-rule:evenodd;stroke:#000000;stroke-width:1;stroke-miterlimit:4;stroke-dasharray:none;marker-start:url(#marker1341);marker-end:url(#marker1447);paint-order:markers fill stroke"
       d="M 196.93441,14.967091 H 123.15249"
       id="path1337" />
    <path
       style="fill:none;fill-rule:evenodd;stroke:#000000;stroke-width:1;stroke-miterlimit:4;stroke-dasharray:none;marker-start:url(#marker1515);marker-end:url(#marker1585);paint-order:markers fill stroke"
       d="M 0.22167924,-17.690406 H 168.17398"
       id="path1511" />
    <path
       style="fill:none;fill-rule:evenodd;stroke:#000000;stroke-width:1;stroke-miterlimit:4;stroke-dasharray:none;paint-order:markers fill stroke"
       d="m 0.22167924,38.553561 v -69.55683"
       id="path1683" />
    <path
       style="fill:none;fill-rule:evenodd;stroke:#000000;stroke-width:1;stroke-miterlimit:4;stroke-dasharray:none;paint-order:markers fill stroke"
       d="m 123.15249,38.553561 v -69.55683"
       id="path1685" />
    <path
       style="fill:none;fill-rule:evenodd;stroke:#000000;stroke-width:1;stroke-miterlimit:4;stroke-dasharray:none;paint-order:markers fill stroke"
       d="m 168.17398,-31.003269 v 69.55683"
       id="path1687" />
    <path
       style="fill:none;fill-rule:evenodd;stroke:#000000;stroke-width:1;stroke-miterlimit:4;stroke-dasharray:none;paint-order:markers fill stroke"
       d="m 196.93441,-31.003269 v 69.55683"
       id="path1689" />
    <text
       xml:space="preserve"
       style="font-size:9.87778px;line-height:125%;font-family:sans-serif;-inkscape-font-specification:'sans-serif, Normal';writing-mode:lr-tb;fill:#000000;fill-rule:evenodd;stroke:none;stroke-width:1;stroke-miterlimit:4;stroke-dasharray:none;paint-order:markers fill stroke"
       x="38.834755"
       y="3.4527774"
       id="text1693"
       transform="rotate(-90)"><tspan
         sodipodi:role="line"
         id="tspan1691"
         x="38.834755"
         y="3.4527774"
         style="font-size:9.87778px;fill:#000000;stroke:none;stroke-width:1">(if real_start real_start (+ end_previous Delta))</tspan></text>
    <text
       xml:space="preserve"
       style="font-style:normal;font-variant:normal;font-weight:normal;font-stretch:normal;font-size:9.87777px;line-height:125%;font-family:sans-serif;-inkscape-font-specification:'sans-serif, Normal';font-variant-ligatures:normal;font-variant-caps:normal;font-variant-numeric:normal;font-variant-east-asian:normal;writing-mode:lr-tb;fill:#000000;fill-rule:evenodd;stroke:none;stroke-width:1;stroke-miterlimit:4;stroke-dasharray:none;paint-order:markers fill stroke"
       x="38.834755"
       y="126.05064"
       id="text1693-1"
       transform="rotate(-90)"><tspan
         sodipodi:role="line"
         id="tspan1729"
         x="38.834755"
         y="126.05064">(+ start duration)</tspan></text>
    <text
       xml:space="preserve"
       style="font-style:normal;font-variant:normal;font-weight:normal;font-stretch:normal;font-size:9.87777px;line-height:125%;font-family:sans-serif;-inkscape-font-specification:'sans-serif, Normal';font-variant-ligatures:normal;font-variant-caps:normal;font-variant-numeric:normal;font-variant-east-asian:normal;writing-mode:lr-tb;fill:#000000;fill-rule:evenodd;stroke:none;stroke-width:1;stroke-miterlimit:4;stroke-dasharray:none;paint-order:markers fill stroke"
       x="38.834755"
       y="170.35649"
       id="text1693-6"
       transform="rotate(-90)"><tspan
         sodipodi:role="line"
         id="tspan1731"
         x="38.834755"
         y="170.35649">(* progress (- end start))</tspan></text>
    <text
       xml:space="preserve"
       style="font-style:normal;font-variant:normal;font-weight:normal;font-stretch:normal;font-size:9.87777px;line-height:125%;font-family:sans-serif;-inkscape-font-specification:'sans-serif, Normal';font-variant-ligatures:normal;font-variant-caps:normal;font-variant-numeric:normal;font-variant-east-asian:normal;writing-mode:lr-tb;fill:#000000;fill-rule:evenodd;stroke:none;stroke-width:1;stroke-miterlimit:4;stroke-dasharray:none;paint-order:markers fill stroke"
       x="38.834755"
       y="200.02448"
       id="text1693-7"
       transform="rotate(-90)"><tspan
         sodipodi:role="line"
         id="tspan1733"
         x="38.834755"
         y="200.02448">(if real_end real_end (+ start duration))</tspan></text>
    <text
       xml:space="preserve"
       style="font-style:normal;font-variant:normal;font-weight:normal;font-stretch:normal;font-size:9.87777px;line-height:125%;font-family:sans-serif;-inkscape-font-specification:'sans-serif, Normal';font-variant-ligatures:normal;font-variant-caps:normal;font-variant-numeric:normal;font-variant-east-asian:normal;writing-mode:lr-tb;fill:#000000;fill-rule:evenodd;stroke:none;stroke-width:1;stroke-miterlimit:4;stroke-dasharray:none;paint-order:markers fill stroke"
       x="200.61909"
       y="52.033871"
       id="text1737"><tspan
         sodipodi:role="line"
         id="tspan1735"
         x="200.61909"
         y="52.033871"
         style="stroke-width:1">Delta &lt; 0</tspan></text>
    <text
       xml:space="preserve"
       style="font-style:normal;font-variant:normal;font-weight:normal;font-stretch:normal;font-size:9.87777px;line-height:125%;font-family:sans-serif;-inkscape-font-specification:'sans-serif, Normal';font-variant-ligatures:normal;font-variant-caps:normal;font-variant-numeric:normal;font-variant-east-asian:normal;writing-mode:lr-tb;fill:#000000;fill-rule:evenodd;stroke:none;stroke-width:1;stroke-miterlimit:4;stroke-dasharray:none;paint-order:markers fill stroke"
       x="337.35681"
       y="122.42837"
       id="text1741"><tspan
         sodipodi:role="line"
         id="tspan1739"
         x="337.35681"
         y="122.42837"
         style="stroke-width:1">Delta &gt; 0</tspan></text>
  </g>
</svg>
